<?xml version="1.0" encoding="UTF-8" standalone="no"?>
<!-- Created with Inkscape (http://www.inkscape.org/) -->

<svg
   xmlns:dc="http://purl.org/dc/elements/1.1/"
   xmlns:cc="http://creativecommons.org/ns#"
   xmlns:rdf="http://www.w3.org/1999/02/22-rdf-syntax-ns#"
   xmlns:svg="http://www.w3.org/2000/svg"
   xmlns="http://www.w3.org/2000/svg"
   xmlns:sodipodi="http://sodipodi.sourceforge.net/DTD/sodipodi-0.dtd"
   xmlns:inkscape="http://www.inkscape.org/namespaces/inkscape"
   width="600"
   height="400"
   viewBox="0 0 158.75001 105.83333"
   version="1.1"
   id="svg8"
   inkscape:version="0.92.3 (2405546, 2018-03-11)"
   sodipodi:docname="two-up.svg">
  <defs
     id="defs2">
    <inkscape:path-effect
       effect="bspline"
       id="path-effect4546"
       is_visible="true"
       weight="33.333333"
       steps="2"
       helper_size="0"
       apply_no_weight="true"
       apply_with_weight="true"
       only_selected="false" />
    <inkscape:path-effect
       effect="bspline"
       id="path-effect4542"
       is_visible="true"
       weight="33.333333"
       steps="2"
       helper_size="0"
       apply_no_weight="true"
       apply_with_weight="true"
       only_selected="false" />
    <inkscape:path-effect
       effect="bspline"
       id="path-effect4538"
       is_visible="true"
       weight="33.333333"
       steps="2"
       helper_size="0"
       apply_no_weight="true"
       apply_with_weight="true"
       only_selected="false" />
  </defs>
  <sodipodi:namedview
     id="base"
     pagecolor="#ffffff"
     bordercolor="#666666"
     borderopacity="1.0"
     inkscape:pageopacity="0.0"
     inkscape:pageshadow="2"
     inkscape:zoom="0.98994949"
     inkscape:cx="224.23346"
     inkscape:cy="162.87157"
     inkscape:document-units="mm"
     inkscape:current-layer="layer1"
     showgrid="false"
     units="px"
     showguides="true"
     inkscape:guide-bbox="true"
     inkscape:window-width="1920"
     inkscape:window-height="1055"
     inkscape:window-x="0"
     inkscape:window-y="18"
     inkscape:window-maximized="1">
    <sodipodi:guide
       position="52.117561,83.12082"
       orientation="0,1"
       id="guide4520"
       inkscape:locked="false" />
    <sodipodi:guide
       position="14.432555,93.811601"
       orientation="1,0"
       id="guide4522"
       inkscape:locked="false" />
    <sodipodi:guide
       position="40.090432,68.420997"
       orientation="0,1"
       id="guide4526"
       inkscape:locked="false" />
    <sodipodi:guide
       position="90.871645,49.9794"
       orientation="0,1"
       id="guide4528"
       inkscape:locked="false" />
    <sodipodi:guide
       position="83.120828,40.624967"
       orientation="0,1"
       id="guide4530"
       inkscape:locked="false" />
    <sodipodi:guide
       position="87.664411,31.537803"
       orientation="0,1"
       id="guide4532"
       inkscape:locked="false" />
  </sodipodi:namedview>
  <metadata
     id="metadata5">
    <rdf:RDF>
      <cc:Work
         rdf:about="">
        <dc:format>image/svg+xml</dc:format>
        <dc:type
           rdf:resource="http://purl.org/dc/dcmitype/StillImage" />
        <dc:title />
      </cc:Work>
    </rdf:RDF>
  </metadata>
  <g
     inkscape:label="Layer 1"
     inkscape:groupmode="layer"
     id="layer1"
     transform="translate(0,-191.16671)">
    <rect
       style="fill:#000000;stroke-width:0.26458332"
       id="rect3713"
       width="70.826424"
       height="79.379051"
       x="79.913589"
       y="205.86113" />
    <path
       style="fill:none;stroke:#000000;stroke-width:4.13715601;stroke-linecap:butt;stroke-linejoin:miter;stroke-miterlimit:4;stroke-dasharray:none;stroke-opacity:1"
       d="M 14.432555,228.84632 H 57.997489"
       id="path4534"
       inkscape:connector-curvature="0" />
    <rect
       style="fill:#b3b3b3;stroke-width:3.17499995;stroke-miterlimit:4;stroke-dasharray:none"
       id="rect837"
       width="35.279575"
       height="6.1472039"
       x="14.432554"
       y="207.73203" />
    <rect
       style="fill:#b3b3b3;stroke-width:3.17499995;stroke-miterlimit:4;stroke-dasharray:none"
       id="rect842"
       width="46.237629"
       height="29.132376"
       x="14.432554"
       y="247.02065" />
    <rect
       style="fill:none;stroke-width:3.17499995;stroke-miterlimit:4;stroke-dasharray:none;fill-opacity:1;stroke:#000000;stroke-opacity:1"
       id="rect844"
       width="158.49083"
       height="106.106"
       x="0.26726952"
       y="191.16132" />
  </g>
</svg>
